1 45 112
10 27 112
63 8 113
5 92 116
37 20 112
12 56 113
3 71 113
9 34 112
17 78 116
6 29 112
14 63 113
41 13 112
8 55 113
28 91 116
11 37 112
53 2 112
7 65 113
19 47 112
2 76 116
59 23 113
31 84 116
6 69 113
15 39 112
15 60 113
46 24 112
73 18 116
12 49 112
35 5 112
1 57 113
81 10 116
9 29 112
68 7 113
52 3 112
5 66 113
42 12 112
16 61 113
25 98 119
13 44 112
38 16 112
3 70 113
62 11 113
19 75 116
49 21 112
8 36 112
95 1 116
21 58 113
2 67 113
84 9 116
14 53 112
57 4 113
11 35 112
33 6 112
7 68 113
70 2 113
10 45 112
55 15 113
21 80 116
87 1 116
34 8 112
6 54 113
31 65 113
54 23 113
10 33 112
88 22 116
17 99 119
78 39 116
6 89 116
59 41 113
8 62 113
37 74 116
92 19 116
27 81 116
4 77 116
48 12 112
15 52 112
70 29 113
94 38 116
11 86 116
45 7 112
32 73 116
67 4 113
9 58 113
62 14 113
50 35 110
20 71 113
84 26 116
5 49 112
36 66 113
74 18 116
13 75 116
68 1 113
26 64 113
3 29 112
56 45 113
81 38 116
7 39 112
46 27 112
24 78 116
70 5 113
19 94 116
32 22 112
9 57 113
60 8 113
51 36 110
89 14 116
25 72 113
62 3 113
17 93 116
47 11 112
30 68 113
73 2 116
14 50 112
35 63 113
6 87 116
52 19 112
95 25 116
28 90 116
8 79 116
42 60 113
76 16 116
11 40 112
55 21 113
86 32 116
4 71 113
64 24 113
2 84 116
79 15 116
31 59 113
68 20 113
7 66 113
44 34 110
13 92 116
60 16 113
26 56 113
88 31 116
38 61 113
72 28 113
9 43 112
57 10 113
94 18 116
47 6 112
19 95 116
84 12 116
2 49 112
76 17 116
35 84 116
8 97 119
51 23 112
6 71 113
59 31 113
11 74 116
68 8 113
22 50 112
87 9 116
41 79 116
65 27 113
15 77 116
72 37 113
33 66 113
5 85 116
55 29 113
30 64 113
80 37 116
13 59 113
3 78 116
66 19 113
9 47 112
35 94 116
81 33 116
2 89 116
45 12 112
28 73 116
69 17 113
7 67 113
53 10 112
10 69 113
38 80 116
85 4 116
17 56 113
93 14 116
22 82 116
76 26 116
41 88 116
62 31 113
12 67 113
49 1 112
31 98 119
67 13 113
24 79 116
