1 10 20
100 200 125
201 210 89
900 1000 174
1 1 1
1 10000 262
10000 1 262
10000 10000 30
1 100 119
101 200 125
201 300 128
1 2 2
2 1 2
500 505 111
505 500 111
5000 5005 179
5005 5000 179
1 5000 238
1 50000 324
50000 1 324
1000 50000 324
10 50000 324
50000 10 324
999998 1000000 259
1 999999 525
1 1000000 525
2 2 2
3 3 8
4 4 3
5 5 6
6 6 9
7 7 17
8 8 4
9 9 20
10 15 18
20 25 24
30 35 107
40 45 110
50 55 113
60 65 108
70 75 116
80 85 111
90 95 106
100 105 88
150 155 86
200 205 40
250 255 110
300 305 43
350 355 126
400 405 28
450 455 54
500 550 137
550 600 137
650 700 145
700 750 171
800 850 135
900 950 174
1000 1050 156
1100 1150 151
1200 1250 177
1300 1350 177
1400 1450 172
1500 1550 154
1600 1650 167
1700 1750 180
1800 1850 162
1900 1950 175
2000 2050 157
2100 2150 170
2200 2250 183
2300 2350 183
2400 2450 165
2500 2550 178
2600 2650 191
2700 2750 160
2800 2850 173
2900 2950 217
3000 3050 155
3100 3150 155
3200 3250 168
3300 3350 181
3400 3450 150
3500 3550 150
3600 3650 163
3700 3750 238
3800 3850 176
3900 3950 189
4000 4050 189
4100 4150 189
4200 4250 202
4300 4350 184
4400 4450 184
4500 4550 184
4600 4650 184
4700 4750 166
4800 4850 166
4900 4950 210
5000 5050 179
5100 5150 179
5200 5250 179
5300 5350 161
5400 5450 161
5500 5550 205
5600 5650 174
5700 5750 174
5800 5850 218
5900 5950 187
6000 6050 187
6100 6150 187
6200 6250 187
6300 6350 200
6400 6450 169
6500 6550 200
6600 6650 169
6700 6750 182
6800 6850 182
6900 6950 257
7000 7050 195
7100 7150 195
7200 7250 164
